FIP 606 | Caio M. - Aula 4
…
Convertendo

Visualizando os dados importados acima, é possível notar que eles estão no formato largo. Logo, será preciso transformá-los para o formato longo. Para isso, será utilizada a função pivot_longer (tidyr). Indicamos quais colunas serão transformadas para o formato longo e atribuímos nomes às novas colunas:

pepper2 <- pepper %>% 
  pivot_longer(2:4,
               names_to = "epidemic",
               values_to = "inc")

pepper2

# A tibble: 24 × 3
       t epidemic   inc
   <dbl> <chr>    <dbl>
 1     0 1        0.08 
 2     0 2        0.001
 3     0 3        0.001
 4     7 1        0.13 
 5     7 2        0.01 
 6     7 3        0.001
 7    14 1        0.78 
 8    14 2        0.09 
 9    14 3        0.01 
10    21 1        0.92 
# ℹ 14 more rows
…
