FIP 606 | Caio M. - Aula 9
…
library(broom)
mofo2 <- wm %>% 
  group_by(study) %>% 
  do(tidy(lm(.$study ~ .$inc), conf.int = TRUE))

mofo2

# A tibble: 70 × 8
# Groups:   study [35]
   study term        estimate std.error statistic     p.value conf.low conf.high
   <dbl> <chr>          <dbl>     <dbl>     <dbl>       <dbl>    <dbl>     <dbl>
 1     1 (Intercept) 1   e+ 0  0        Inf         0         1   e+ 0  1   e+ 0
 2     1 .$inc       0         0        NaN       NaN         0         0       
 3     2 (Intercept) 2   e+ 0  0        Inf         0         2   e+ 0  2   e+ 0
 4     2 .$inc       0         0        NaN       NaN         0         0       
 5     3 (Intercept) 3   e+ 0  0        Inf         0         3   e+ 0  3   e+ 0
 6     3 .$inc       0         0        NaN       NaN         0         0       
 7     4 (Intercept) 4   e+ 0  0        Inf         0         4   e+ 0  4   e+ 0
 8     4 .$inc       0         0        NaN       NaN         0         0       
 9     5 (Intercept) 5.00e+ 0  1.16e-15   4.29e15   1.37e-167 5.00e+ 0  5   e+ 0
10     5 .$inc       1.40e-16  2.83e-17   4.93e 0   4.50e-  4 7.73e-17  2.02e-16
# ℹ 60 more rows
…
